{
    "name": "testtest",
    "description": "test",
    "picture": "",
    "anime": "",
    "credit": {
        "author": "test",
        "pictures": "test",
        "coder": ""
    },
    "maxHp": 100,
    "category": [],
    "id": "",
    "status": {
        "onAttack": [],
        "onReceive": [],
        "onSkill": [],
        "onState": []
    },
    "skills": [],
    "hp": 100,
    "alive": true
}