{
    "name": "wdwwd",
    "description": "estt",
    "picture": "",
    "anime": "",
    "credit": {
        "author": "est",
        "pictures": "test",
        "coder": ""
    },
    "maxHp": 100,
    "category": [],
    "id": "",
    "status": {
        "onAttack": [],
        "onReceive": [],
        "onSkill": [],
        "onState": []
    },
    "skills": [
        {
            "name": "test",
            "description": "",
            "picture": "",
            "id": "",
            "index": 0,
            "caster": "",
            "persistence": [
                {
                    "type": "default",
                    "value": "instant",
                    "schema": "string"
                }
            ],
            "class": [
                {
                    "type": "default",
                    "value": "physical",
                    "schema": "string"
                }
            ],
            "effects": [],
            "target": [
                {
                    "type": "default",
                    "value": "enemy",
                    "schema": "string"
                }
            ],
            "cooldown": [
                {
                    "type": "default",
                    "value": 0,
                    "schema": "int"
                }
            ],
            "cost": {
                "g": [
                    {
                        "type": "default",
                        "value": 0,
                        "schema": "int"
                    }
                ],
                "r": [
                    {
                        "type": "default",
                        "value": 0,
                        "schema": "int"
                    }
                ],
                "b": [
                    {
                        "type": "default",
                        "value": 0,
                        "schema": "int"
                    }
                ],
                "w": [
                    {
                        "type": "default",
                        "value": 0,
                        "schema": "int"
                    }
                ],
                "rd": [
                    {
                        "type": "default",
                        "value": 0,
                        "schema": "int"
                    }
                ]
            },
            "counter": 0,
            "active": true,
            "store": [],
            "isHarmful": [
                {
                    "type": "default",
                    "value": true,
                    "schema": "bool"
                }
            ],
            "isAllowed": [
                {
                    "type": "default",
                    "value": true,
                    "schema": "bool"
                }
            ],
            "isCooldown": false,
            "isStore": [
                {
                    "type": "default",
                    "value": false,
                    "schema": "bool"
                }
            ],
            "isIgnoreCounter": [
                {
                    "type": "default",
                    "value": false,
                    "schema": "bool"
                }
            ],
            "isIgnoreStun": [
                {
                    "type": "default",
                    "value": false,
                    "schema": "bool"
                }
            ],
            "isIgnoreInvul": [
                {
                    "type": "default",
                    "value": false,
                    "schema": "bool"
                }
            ]
        }
    ],
    "hp": 100,
    "alive": true
}